{"status":200,"metadata":{"in_progress_count":0,"active_cc_count":0,"max_cc_count":3,"company":"HTA Solutions","root":"calls","page":2,"total_pages":1155,"per_page":25,"total_count":28833,"next_cursor":32494003,"params":{"page":"2","order":"created_at","columns":"uuid,number_called,connected_to,caller_number,offer,traffic_source,buyer,total_duration,hold_duration,ivr_duration, answered_duration,user_offer_id,user_traffic_source_id,user_buyer_id,status, buyer_converted, buyer_revenue, traffic_source_payout,trackdrive_cost,provider_cost,hangup_reason,provider,created_at,ended_at","time_zone":"Etc/UTC","order_dir":"desc","per_page":"25"}},"calls":[{"uuid":"d02378c6-ccb7-45cb-b83d-6307f7909de1","number_called":"+18442001831","connected_to":"+18662146647","caller_number":"+13472204513","offer":"Tech Support US/CA","traffic_source":"Hta-05-Aniket - 844-200-1831","buyer":"MYI-2","total_duration":76,"hold_duration":4.005847692489624,"ivr_duration":0.13819122314453125,"answered_duration":74.0,"user_offer_id":"tsUSCA","user_traffic_source_id":"Hta-05-Aniket","user_buyer_id":null,"status":"finished","buyer_converted":"Converted","buyer_revenue":10.5,"traffic_source_payout":9.25,"trackdrive_cost":0.05,"provider_cost":0.048,"hangup_reason":"caller","provider":"plivo","created_at":"2017-06-22T00:53:31.440+00:00","ended_at":"2017-06-22T00:54:48.025+00:00"},{"uuid":"751096e5-9a7b-4902-81cd-92d241e5b9ee","number_called":"+18442001831","connected_to":null,"caller_number":"+13037256695","offer":"Tech Support US/CA","traffic_source":"Hta-05-Aniket - 844-200-1831","buyer":null,"total_duration":7,"hold_duration":0,"ivr_duration":7.772416830062866,"answered_duration":0.0,"user_offer_id":"tsUSCA","user_traffic_source_id":"Hta-05-Aniket","user_buyer_id":null,"status":"not-open","buyer_converted":null,"buyer_revenue":null,"traffic_source_payout":null,"trackdrive_cost":0.025,"provider_cost":0.021,"hangup_reason":null,"provider":"plivo","created_at":"2017-06-22T00:52:39.350+00:00","ended_at":"2017-06-22T00:52:47.123+00:00"},{"uuid":"ed4d4539-6a3b-4711-a6a1-48d137e306bf","number_called":"+18442001831","connected_to":"+18662146647","caller_number":"+13123601192","offer":"Tech Support US/CA","traffic_source":"Hta-05-Aniket - 844-200-1831","buyer":"MYI-2","total_duration":98,"hold_duration":3.8916211128234863,"ivr_duration":0.20177388191223145,"answered_duration":94.0,"user_offer_id":"tsUSCA","user_traffic_source_id":"Hta-05-Aniket","user_buyer_id":null,"status":"finished","buyer_converted":"Converted","buyer_revenue":10.5,"traffic_source_payout":9.25,"trackdrive_cost":0.05,"provider_cost":0.048,"hangup_reason":"buyer","provider":"plivo","created_at":"2017-06-22T00:52:32.397+00:00","ended_at":"2017-06-22T00:54:11.092+00:00"},{"uuid":"e0d75e6b-151e-4b62-81b1-79c33db77f91","number_called":"+18442001831","connected_to":null,"caller_number":"+13037256695","offer":"Tech Support US/CA","traffic_source":"Hta-05-Aniket - 844-200-1831","buyer":null,"total_duration":14,"hold_duration":0,"ivr_duration":13.799036979675293,"answered_duration":0.0,"user_offer_id":"tsUSCA","user_traffic_source_id":"Hta-05-Aniket","user_buyer_id":null,"status":"not-open","buyer_converted":null,"buyer_revenue":null,"traffic_source_payout":null,"trackdrive_cost":0.025,"provider_cost":0.021,"hangup_reason":null,"provider":"plivo","created_at":"2017-06-22T00:51:43.127+00:00","ended_at":"2017-06-22T00:51:56.926+00:00"},{"uuid":"4aa91158-3a4b-4007-8b10-9d670060129f","number_called":"+18442001831","connected_to":"+18662146647","caller_number":"+13037256695","offer":"Tech Support US/CA","traffic_source":"Hta-05-Aniket - 844-200-1831","buyer":"MYI-2","total_duration":27,"hold_duration":3.3303589820861816,"ivr_duration":0.19604730606079102,"answered_duration":25.0,"user_offer_id":"tsUSCA","user_traffic_source_id":"Hta-05-Aniket","user_buyer_id":null,"status":"finished","buyer_converted":"Converted","buyer_revenue":10.5,"traffic_source_payout":9.25,"trackdrive_cost":0.025,"provider_cost":0.024,"hangup_reason":"caller","provider":"plivo","created_at":"2017-06-22T00:50:40.117+00:00","ended_at":"2017-06-22T00:51:07.830+00:00"},{"uuid":"2b8ba9d2-4286-42b8-9b71-402725ce8909","number_called":"+18442001831","connected_to":"+18662146647","caller_number":"+17143901933","offer":"Tech Support US/CA","traffic_source":"Hta-05-Aniket - 844-200-1831","buyer":"MYI-2","total_duration":88,"hold_duration":3.083498954772949,"ivr_duration":0.21600604057312012,"answered_duration":86.0,"user_offer_id":"tsUSCA","user_traffic_source_id":"Hta-05-Aniket","user_buyer_id":null,"status":"finished","buyer_converted":"Converted","buyer_revenue":10.5,"traffic_source_payout":9.25,"trackdrive_cost":0.05,"provider_cost":0.048,"hangup_reason":"buyer","provider":"plivo","created_at":"2017-06-22T00:50:04.670+00:00","ended_at":"2017-06-22T00:51:33.650+00:00"},{"uuid":"9ef7f0cf-5417-47f6-a79f-b2395c979207","number_called":"+18442001831","connected_to":"+18662146647","caller_number":"+14055499717","offer":"Tech Support US/CA","traffic_source":"Hta-05-Aniket - 844-200-1831","buyer":"MYI-2","total_duration":367,"hold_duration":4.1827356815338135,"ivr_duration":0.21056914329528809,"answered_duration":364.0,"user_offer_id":"tsUSCA","user_traffic_source_id":"Hta-05-Aniket","user_buyer_id":null,"status":"finished","buyer_converted":"Converted","buyer_revenue":10.5,"traffic_source_payout":9.25,"trackdrive_cost":0.175,"provider_cost":0.168,"hangup_reason":"caller","provider":"plivo","created_at":"2017-06-22T00:47:29.804+00:00","ended_at":"2017-06-22T00:53:37.568+00:00"},{"uuid":"75bc5d1f-3453-4e3a-b78e-a09eb20797b9","number_called":"+18442001831","connected_to":"+18662146647","caller_number":"+19733457683","offer":"Tech Support US/CA","traffic_source":"Hta-05-Aniket - 844-200-1831","buyer":"MYI-2","total_duration":374,"hold_duration":3.3360137939453125,"ivr_duration":0.21649718284606934,"answered_duration":371.0,"user_offer_id":"tsUSCA","user_traffic_source_id":"Hta-05-Aniket","user_buyer_id":null,"status":"finished","buyer_converted":"Converted","buyer_revenue":10.5,"traffic_source_payout":9.25,"trackdrive_cost":0.175,"provider_cost":0.168,"hangup_reason":"caller","provider":"plivo","created_at":"2017-06-22T00:40:15.349+00:00","ended_at":"2017-06-22T00:46:29.636+00:00"},{"uuid":"b664b6ef-fa07-4e1c-afce-6e3258187a6b","number_called":"+18442001831","connected_to":null,"caller_number":"+18137842722","offer":"Tech Support US/CA","traffic_source":"Hta-05-Aniket - 844-200-1831","buyer":null,"total_duration":15,"hold_duration":0,"ivr_duration":15.288974285125732,"answered_duration":0.0,"user_offer_id":"tsUSCA","user_traffic_source_id":"Hta-05-Aniket","user_buyer_id":null,"status":"not-open","buyer_converted":null,"buyer_revenue":null,"traffic_source_payout":null,"trackdrive_cost":0.025,"provider_cost":0.021,"hangup_reason":null,"provider":"plivo","created_at":"2017-06-22T00:32:33.114+00:00","ended_at":"2017-06-22T00:32:48.403+00:00"},{"uuid":"8009dd77-6de4-4559-8807-67cd250970f0","number_called":"+18442001831","connected_to":"+18662146647","caller_number":"+17064732739","offer":"Tech Support US/CA","traffic_source":"Hta-05-Aniket - 844-200-1831","buyer":"MYI-2","total_duration":1286,"hold_duration":4.455992937088013,"ivr_duration":0.18377995491027832,"answered_duration":1282.0,"user_offer_id":"tsUSCA","user_traffic_source_id":"Hta-05-Aniket","user_buyer_id":null,"status":"finished","buyer_converted":"Converted","buyer_revenue":10.5,"traffic_source_payout":9.25,"trackdrive_cost":0.55,"provider_cost":0.528,"hangup_reason":"buyer","provider":"plivo","created_at":"2017-06-22T00:32:29.910+00:00","ended_at":"2017-06-22T00:53:56.411+00:00"},{"uuid":"bae8dec9-42e8-4fdb-b520-9a8b9551bd73","number_called":"+18442001831","connected_to":null,"caller_number":"+18137842722","offer":"Tech Support US/CA","traffic_source":"Hta-05-Aniket - 844-200-1831","buyer":null,"total_duration":10,"hold_duration":0,"ivr_duration":10.999121904373169,"answered_duration":0.0,"user_offer_id":"tsUSCA","user_traffic_source_id":"Hta-05-Aniket","user_buyer_id":null,"status":"not-open","buyer_converted":null,"buyer_revenue":null,"traffic_source_payout":null,"trackdrive_cost":0.025,"provider_cost":0.021,"hangup_reason":null,"provider":"plivo","created_at":"2017-06-22T00:32:14.449+00:00","ended_at":"2017-06-22T00:32:25.448+00:00"},{"uuid":"1ab458bc-159e-43a9-927b-c197e6dbf2fa","number_called":"+18442001831","connected_to":"+18557669909","caller_number":"+15402040006","offer":"Tech Support US/CA","traffic_source":"Hta-05-Aniket - 844-200-1831","buyer":"Jain","total_duration":85,"hold_duration":3.284719944000244,"ivr_duration":0.1292409896850586,"answered_duration":83.0,"user_offer_id":"tsUSCA","user_traffic_source_id":"Hta-05-Aniket","user_buyer_id":null,"status":"finished","buyer_converted":"Converted","buyer_revenue":10.5,"traffic_source_payout":9.25,"trackdrive_cost":0.05,"provider_cost":0.048,"hangup_reason":"caller","provider":"plivo","created_at":"2017-06-22T00:31:18.798+00:00","ended_at":"2017-06-22T00:32:43.604+00:00"},{"uuid":"a60d4046-0b13-4b70-a905-8b79e7c40968","number_called":"+18442001831","connected_to":"+18557669909","caller_number":"+18137842722","offer":"Tech Support US/CA","traffic_source":"Hta-05-Aniket - 844-200-1831","buyer":"Jain","total_duration":63,"hold_duration":3.625452995300293,"ivr_duration":0.2242140769958496,"answered_duration":61.0,"user_offer_id":"tsUSCA","user_traffic_source_id":"Hta-05-Aniket","user_buyer_id":null,"status":"finished","buyer_converted":"Converted","buyer_revenue":10.5,"traffic_source_payout":null,"trackdrive_cost":0.05,"provider_cost":0.048,"hangup_reason":"caller","provider":"plivo","created_at":"2017-06-22T00:30:28.268+00:00","ended_at":"2017-06-22T00:31:32.281+00:00"},{"uuid":"70e5b3d7-fea8-4edd-85ca-3fb91f40179e","number_called":"+18442001831","connected_to":"+18557669909","caller_number":"+17143931045","offer":"Tech Support US/CA","traffic_source":"Hta-05-Aniket - 844-200-1831","buyer":"Jain","total_duration":300,"hold_duration":3.378509044647217,"ivr_duration":0.13387489318847656,"answered_duration":297.0,"user_offer_id":"tsUSCA","user_traffic_source_id":"Hta-05-Aniket","user_buyer_id":null,"status":"finished","buyer_converted":"Converted","buyer_revenue":10.5,"traffic_source_payout":9.25,"trackdrive_cost":0.125,"provider_cost":0.12,"hangup_reason":"buyer","provider":"plivo","created_at":"2017-06-22T00:30:12.825+00:00","ended_at":"2017-06-22T00:35:13.078+00:00"},{"uuid":"785b74f4-854b-4d56-a4af-4bb8d1876a25","number_called":"+18442001831","connected_to":"+18662146647","caller_number":"+18137842722","offer":"Tech Support US/CA","traffic_source":"Hta-05-Aniket - 844-200-1831","buyer":"MYI-2","total_duration":46,"hold_duration":3.753617763519287,"ivr_duration":0.1435251235961914,"answered_duration":43.0,"user_offer_id":"tsUSCA","user_traffic_source_id":"Hta-05-Aniket","user_buyer_id":null,"status":"finished","buyer_converted":"Converted","buyer_revenue":10.5,"traffic_source_payout":9.25,"trackdrive_cost":0.025,"provider_cost":0.024,"hangup_reason":"caller","provider":"plivo","created_at":"2017-06-22T00:29:22.255+00:00","ended_at":"2017-06-22T00:30:08.225+00:00"},{"uuid":"0cad287c-c022-45c7-87be-55c5906ab235","number_called":"+18884742798","connected_to":"+18557669909","caller_number":"+16077480561","offer":"Tech Support US/CA","traffic_source":"HTA-07-Jason - 888-474-2798","buyer":"Jain","total_duration":14,"hold_duration":3.501424789428711,"ivr_duration":0.21527099609375,"answered_duration":12.0,"user_offer_id":"tsUSCA","user_traffic_source_id":"HTA-07-Jason","user_buyer_id":null,"status":"finished","buyer_converted":"Converted","buyer_revenue":10.5,"traffic_source_payout":9.25,"trackdrive_cost":0.025,"provider_cost":0.024,"hangup_reason":"caller","provider":"plivo","created_at":"2017-06-22T00:28:58.332+00:00","ended_at":"2017-06-22T00:29:12.675+00:00"},{"uuid":"41a839f8-e6a2-4270-bd60-aed12123162b","number_called":"+18442001831","connected_to":"+18662146647","caller_number":"+12547996545","offer":"Tech Support US/CA","traffic_source":"Hta-05-Aniket - 844-200-1831","buyer":"MYI-2","total_duration":839,"hold_duration":4.690938711166382,"ivr_duration":0.1259012222290039,"answered_duration":835.0,"user_offer_id":"tsUSCA","user_traffic_source_id":"Hta-05-Aniket","user_buyer_id":null,"status":"finished","buyer_converted":"Converted","buyer_revenue":10.5,"traffic_source_payout":null,"trackdrive_cost":0.35,"provider_cost":0.336,"hangup_reason":"caller","provider":"plivo","created_at":"2017-06-22T00:26:25.438+00:00","ended_at":"2017-06-22T00:40:24.282+00:00"},{"uuid":"a29ef0f5-b698-4047-b150-aeebcee01cef","number_called":"+18442003988","connected_to":"+18557669909","caller_number":"+18644175452","offer":"Tech Support US/CA","traffic_source":"hta-08 - 844-200-3988","buyer":"Jain","total_duration":3142,"hold_duration":5.493880033493042,"ivr_duration":0.21677494049072266,"answered_duration":3138.0,"user_offer_id":"tsUSCA","user_traffic_source_id":"hta-08","user_buyer_id":null,"status":"finished","buyer_converted":"Converted","buyer_revenue":10.5,"traffic_source_payout":9.25,"trackdrive_cost":1.325,"provider_cost":1.272,"hangup_reason":"caller","provider":"plivo","created_at":"2017-06-22T00:23:07.267+00:00","ended_at":"2017-06-22T01:15:29.446+00:00"},{"uuid":"b2170ffe-6a09-49e0-a416-72d2bdf6e871","number_called":"+18442001831","connected_to":"+18662146647","caller_number":"+13044924094","offer":"Tech Support US/CA","traffic_source":"Hta-05-Aniket - 844-200-1831","buyer":"MYI-2","total_duration":111,"hold_duration":4.125932931900024,"ivr_duration":0.12174320220947266,"answered_duration":107.0,"user_offer_id":"tsUSCA","user_traffic_source_id":"Hta-05-Aniket","user_buyer_id":null,"status":"finished","buyer_converted":"Converted","buyer_revenue":10.5,"traffic_source_payout":9.25,"trackdrive_cost":0.05,"provider_cost":0.048,"hangup_reason":"buyer","provider":"plivo","created_at":"2017-06-22T00:22:01.646+00:00","ended_at":"2017-06-22T00:23:52.781+00:00"},{"uuid":"756ba76a-66a9-4d25-b0fc-3ec8fb5f8dca","number_called":"+18442001831","connected_to":"+18557669909","caller_number":"+17068613991","offer":"Tech Support US/CA","traffic_source":"Hta-05-Aniket - 844-200-1831","buyer":"Jain","total_duration":72,"hold_duration":3.717089891433716,"ivr_duration":0.13379192352294922,"answered_duration":70.0,"user_offer_id":"tsUSCA","user_traffic_source_id":"Hta-05-Aniket","user_buyer_id":null,"status":"finished","buyer_converted":"Converted","buyer_revenue":10.5,"traffic_source_payout":9.25,"trackdrive_cost":0.05,"provider_cost":0.048,"hangup_reason":"caller","provider":"plivo","created_at":"2017-06-22T00:20:27.064+00:00","ended_at":"2017-06-22T00:21:39.041+00:00"},{"uuid":"8ef3bc2e-55ec-4a25-b78c-6e4682e05798","number_called":"+18442001831","connected_to":"+18557669909","caller_number":"+12547996545","offer":"Tech Support US/CA","traffic_source":"Hta-05-Aniket - 844-200-1831","buyer":"Jain","total_duration":429,"hold_duration":3.612799882888794,"ivr_duration":0.21822619438171387,"answered_duration":427.0,"user_offer_id":"tsUSCA","user_traffic_source_id":"Hta-05-Aniket","user_buyer_id":null,"status":"finished","buyer_converted":"Converted","buyer_revenue":10.5,"traffic_source_payout":9.25,"trackdrive_cost":0.2,"provider_cost":0.192,"hangup_reason":"caller","provider":"plivo","created_at":"2017-06-22T00:15:21.528+00:00","ended_at":"2017-06-22T00:22:31.000+00:00"},{"uuid":"e7784214-7f62-4058-948b-3e38fb95fbdd","number_called":"+18442001831","connected_to":"+18662146647","caller_number":"+15037749621","offer":"Tech Support US/CA","traffic_source":"Hta-05-Aniket - 844-200-1831","buyer":"MYI-2","total_duration":166,"hold_duration":3.884464979171753,"ivr_duration":0.1074669361114502,"answered_duration":163.0,"user_offer_id":"tsUSCA","user_traffic_source_id":"Hta-05-Aniket","user_buyer_id":null,"status":"finished","buyer_converted":"Converted","buyer_revenue":10.5,"traffic_source_payout":9.25,"trackdrive_cost":0.07500000000000001,"provider_cost":0.072,"hangup_reason":"caller","provider":"plivo","created_at":"2017-06-22T00:12:38.265+00:00","ended_at":"2017-06-22T00:15:24.514+00:00"},{"uuid":"a3574a20-abd7-4854-887f-e82e8aa044fa","number_called":"+18442003988","connected_to":"+18662146647","caller_number":"+16039885990","offer":"Tech Support US/CA","traffic_source":"hta-08 - 844-200-3988","buyer":"MYI-2","total_duration":2224,"hold_duration":3.876103162765503,"ivr_duration":0.19475793838500977,"answered_duration":2220.0,"user_offer_id":"tsUSCA","user_traffic_source_id":"hta-08","user_buyer_id":null,"status":"finished","buyer_converted":"Converted","buyer_revenue":10.5,"traffic_source_payout":9.25,"trackdrive_cost":0.9500000000000001,"provider_cost":0.909,"hangup_reason":"caller","provider":"plivo","created_at":"2017-06-22T00:12:19.594+00:00","ended_at":"2017-06-22T00:49:23.391+00:00"},{"uuid":"7e3f5241-5d56-42db-a171-b92e2e894e66","number_called":"+18442001831","connected_to":"+18557669909","caller_number":"+18046515425","offer":"Tech Support US/CA","traffic_source":"Hta-05-Aniket - 844-200-1831","buyer":"Jain","total_duration":32,"hold_duration":4.078296899795532,"ivr_duration":0.1524031162261963,"answered_duration":30.0,"user_offer_id":"tsUSCA","user_traffic_source_id":"Hta-05-Aniket","user_buyer_id":null,"status":"finished","buyer_converted":"Converted","buyer_revenue":10.5,"traffic_source_payout":9.25,"trackdrive_cost":0.025,"provider_cost":0.024,"hangup_reason":"caller","provider":"plivo","created_at":"2017-06-22T00:12:15.981+00:00","ended_at":"2017-06-22T00:12:48.808+00:00"},{"uuid":"087e7bf8-08be-421e-81a6-2fda8970773c","number_called":"+18442003988","connected_to":"+18662146647","caller_number":"+17077749345","offer":"Tech Support US/CA","traffic_source":"hta-08 - 844-200-3988","buyer":"MYI-2","total_duration":49,"hold_duration":3.882390022277832,"ivr_duration":0.18146681785583496,"answered_duration":45.0,"user_offer_id":"tsUSCA","user_traffic_source_id":"hta-08","user_buyer_id":null,"status":"finished","buyer_converted":"Converted","buyer_revenue":10.5,"traffic_source_payout":9.25,"trackdrive_cost":0.025,"provider_cost":0.024,"hangup_reason":"caller","provider":"plivo","created_at":"2017-06-22T00:12:07.534+00:00","ended_at":"2017-06-22T00:12:56.291+00:00"}]}